<?xml version="1.0" encoding="UTF-8" standalone="no"?>
<!-- Created with Inkscape (http://www.inkscape.org/) -->
<svg xmlns:dc="http://purl.org/dc/elements/1.1/" xmlns:cc="http://web.resource.org/cc/" xmlns:rdf="http://www.w3.org/1999/02/22-rdf-syntax-ns#" xmlns:svg="http://www.w3.org/2000/svg" xmlns="http://www.w3.org/2000/svg" xmlns:xlink="http://www.w3.org/1999/xlink" xmlns:sodipodi="http://sodipodi.sourceforge.net/DTD/sodipodi-0.dtd" xmlns:inkscape="http://www.inkscape.org/namespaces/inkscape" width="48px" height="48px" id="svg1306" sodipodi:version="0.32" inkscape:version="0.45" sodipodi:docbase="/home/dobey/Projects/gnome-icon-theme/scalable/mimetypes" sodipodi:docname="image-x-generic.svg" inkscape:output_extension="org.inkscape.output.svg.inkscape">
  <defs id="defs1308">
    <linearGradient inkscape:collect="always" id="linearGradient5060">
      <stop style="stop-color:black;stop-opacity:1;" offset="0" id="stop5062"/>
      <stop style="stop-color:black;stop-opacity:0;" offset="1" id="stop5064"/>
    </linearGradient>
    <linearGradient id="linearGradient5048">
      <stop style="stop-color:black;stop-opacity:0;" offset="0" id="stop5050"/>
      <stop id="stop5056" offset="0.5" style="stop-color:black;stop-opacity:1;"/>
      <stop style="stop-color:black;stop-opacity:0;" offset="1" id="stop5052"/>
    </linearGradient>
    <linearGradient inkscape:collect="always" id="linearGradient6431">
      <stop style="stop-color:#ffffff;stop-opacity:1;" offset="0" id="stop6433"/>
      <stop style="stop-color:#ffffff;stop-opacity:0;" offset="1" id="stop6435"/>
    </linearGradient>
    <linearGradient inkscape:collect="always" id="linearGradient6390">
      <stop style="stop-color:#ffffff;stop-opacity:1" offset="0" id="stop6392"/>
      <stop style="stop-color:#ffffff;stop-opacity:0;" offset="1" id="stop6394"/>
    </linearGradient>
    <linearGradient id="linearGradient6374">
      <stop style="stop-color:#555753;stop-opacity:1;" offset="0" id="stop6376"/>
      <stop style="stop-color:#888a85;stop-opacity:1" offset="1" id="stop6378"/>
    </linearGradient>
    <linearGradient inkscape:collect="always" id="linearGradient6366">
      <stop style="stop-color:#ffffff;stop-opacity:1;" offset="0" id="stop6368"/>
      <stop style="stop-color:#ffffff;stop-opacity:0;" offset="1" id="stop6370"/>
    </linearGradient>
    <linearGradient id="linearGradient6327">
      <stop style="stop-color:#888a85;stop-opacity:1" offset="0" id="stop6329"/>
      <stop style="stop-color:#eeeeec;stop-opacity:1" offset="1" id="stop6331"/>
    </linearGradient>
    <linearGradient inkscape:collect="always" id="linearGradient4616">
      <stop style="stop-color:#2e3436;stop-opacity:1;" offset="0" id="stop4618"/>
      <stop style="stop-color:#2e3436;stop-opacity:0;" offset="1" id="stop4620"/>
    </linearGradient>
    <linearGradient id="linearGradient4928">
      <stop id="stop4930" offset="0" style="stop-color:#fce94f;stop-opacity:1;"/>
      <stop id="stop4932" offset="1" style="stop-color:#fce94f;stop-opacity:0;"/>
    </linearGradient>
    <linearGradient inkscape:collect="always" id="linearGradient2065">
      <stop style="stop-color:#555753" offset="0" id="stop2067"/>
      <stop style="stop-color:#fcaf3e" offset="1" id="stop2069"/>
    </linearGradient>
    <linearGradient inkscape:collect="always" xlink:href="#linearGradient2065" id="linearGradient2071" x1="-11.986486" y1="13.122552" x2="-11.986486" y2="29.726542" gradientUnits="userSpaceOnUse" gradientTransform="matrix(1.1141976,0,0,1.1666667,37.36883,-3.916667)"/>
    <radialGradient inkscape:collect="always" xlink:href="#linearGradient4928" id="radialGradient4915" cx="-6.0070167" cy="32.837029" fx="-6.0070167" fy="32.837029" r="9.90625" gradientTransform="matrix(1,-1.487184e-8,1.425535e-8,0.958546,22.7158,2.575973)" gradientUnits="userSpaceOnUse"/>
    <linearGradient inkscape:collect="always" xlink:href="#linearGradient4616" id="linearGradient4622" x1="25.355263" y1="33.654644" x2="25.355263" y2="32.409008" gradientUnits="userSpaceOnUse" gradientTransform="matrix(1.117647,0,0,1.5,-2.8235294,-15.5)"/>
    <linearGradient inkscape:collect="always" xlink:href="#linearGradient6327" id="linearGradient6333" x1="42.999424" y1="36.811924" x2="40.621296" y2="34.433796" gradientUnits="userSpaceOnUse"/>
    <linearGradient inkscape:collect="always" xlink:href="#linearGradient6327" id="linearGradient6360" x1="61.18124" y1="137.97644" x2="20.420683" y2="2.6749926" gradientUnits="userSpaceOnUse"/>
    <linearGradient inkscape:collect="always" xlink:href="#linearGradient6366" id="linearGradient6372" x1="40.941582" y1="37.639805" x2="35.496311" y2="32.194534" gradientUnits="userSpaceOnUse"/>
    <radialGradient inkscape:collect="always" xlink:href="#linearGradient6374" id="radialGradient6382" cx="39.437065" cy="34.33852" fx="39.437065" fy="34.33852" r="6" gradientTransform="matrix(0.1875,-1.053432,0.7180811,0.127811,7.8227088,71.030427)" gradientUnits="userSpaceOnUse"/>
    <radialGradient inkscape:collect="always" xlink:href="#linearGradient6390" id="radialGradient6396" cx="20.236877" cy="25.043303" fx="20.236877" fy="25.043303" r="22" gradientTransform="matrix(0.9409062,-0.2066504,0.109821,0.5000295,-1.5544064,13.219564)" gradientUnits="userSpaceOnUse"/>
    <radialGradient inkscape:collect="always" xlink:href="#linearGradient6431" id="radialGradient6437" cx="40.179535" cy="34.080399" fx="40.179535" fy="34.080399" r="4.125" gradientTransform="matrix(1,0,0,0.9356061,0,2.3071141)" gradientUnits="userSpaceOnUse"/>
    <radialGradient inkscape:collect="always" xlink:href="#linearGradient5060" id="radialGradient6909" gradientUnits="userSpaceOnUse" gradientTransform="matrix(-1.6064769e-2,0,0,7.4117646e-2,11.681601,-1.1750779)" cx="605.71429" cy="486.64789" fx="605.71429" fy="486.64789" r="117.14286"/>
    <radialGradient inkscape:collect="always" xlink:href="#linearGradient5060" id="radialGradient6912" gradientUnits="userSpaceOnUse" gradientTransform="matrix(0.1044211,0,0,7.4117646e-2,-27.930451,-1.1750779)" cx="605.71429" cy="486.64789" fx="605.71429" fy="486.64789" r="117.14286"/>
    <linearGradient inkscape:collect="always" xlink:href="#linearGradient5048" id="linearGradient6915" gradientUnits="userSpaceOnUse" gradientTransform="matrix(6.8343196e-2,0,0,7.4117646e-2,-6.2011835,-1.1750779)" x1="302.85715" y1="366.64789" x2="302.85715" y2="609.50507"/>
  </defs>
  <sodipodi:namedview id="base" pagecolor="#ffffff" bordercolor="#666666" borderopacity="1" inkscape:pageopacity="0.0" inkscape:pageshadow="2" inkscape:zoom="1" inkscape:cx="39.08644" inkscape:cy="16.34396" inkscape:current-layer="layer1" showgrid="false" inkscape:grid-bbox="true" inkscape:document-units="px" fill="#fcaf3e" stroke="#555753" showguides="true" inkscape:guide-bbox="false" inkscape:window-width="895" inkscape:window-height="760" inkscape:window-x="208" inkscape:window-y="229" inkscape:showpageshadow="false" showborder="false" gridspacingx="0.5px" gridspacingy="0.5px" gridempspacing="2" inkscape:grid-points="false" gridtolerance="50" inkscape:object-paths="false"/>
  <metadata id="metadata1311">
    <rdf:RDF>
      <cc:Work rdf:about="">
        <dc:format>image/svg+xml</dc:format>
        <dc:type rdf:resource="http://purl.org/dc/dcmitype/StillImage"/>
        <dc:title>Generic Image</dc:title>
        <dc:creator>
          <cc:Agent>
            <dc:title>Lapo Calamandrei</dc:title>
          </cc:Agent>
        </dc:creator>
        <dc:source>http://www.gnome.org</dc:source>
        <dc:contributor>
          <cc:Agent>
            <dc:title>Jakub Steiner, Andreas Nilsson</dc:title>
          </cc:Agent>
        </dc:contributor>
        <cc:license rdf:resource="http://creativecommons.org/licenses/GPL/2.0/"/>
      </cc:Work>
      <cc:License rdf:about="http://creativecommons.org/licenses/GPL/2.0/">
        <cc:permits rdf:resource="http://web.resource.org/cc/Reproduction"/>
        <cc:permits rdf:resource="http://web.resource.org/cc/Distribution"/>
        <cc:requires rdf:resource="http://web.resource.org/cc/Notice"/>
        <cc:permits rdf:resource="http://web.resource.org/cc/DerivativeWorks"/>
        <cc:requires rdf:resource="http://web.resource.org/cc/ShareAlike"/>
        <cc:requires rdf:resource="http://web.resource.org/cc/SourceCode"/>
      </cc:License>
    </rdf:RDF>
  </metadata>
  <g id="layer1" inkscape:label="Layer 1" inkscape:groupmode="layer">
    <g id="g6917">
      <rect y="26" x="2" height="18" width="33" id="rect6057" style="opacity:0.39195981;color:#000000;fill:url(#linearGradient6915);fill-opacity:1;fill-rule:nonzero;stroke:none;stroke-width:1;stroke-linecap:round;stroke-linejoin:miter;marker:none;marker-start:none;marker-mid:none;marker-end:none;stroke-miterlimit:4;stroke-dasharray:none;stroke-dashoffset:0;stroke-opacity:1;visibility:visible;display:inline;overflow:visible"/>
      <path sodipodi:nodetypes="ccscc" id="path6059" d="M 35,26.00062 C 35,26.00062 35,43.999627 35,43.999627 C 37.30962,44.01418 40.033409,43.272315 42.389531,42.027493 C 45.519106,40.37403 48.000002,37.833194 48,34.998965 C 48,30.030967 41.999197,26.000621 35,26.00062 z " style="opacity:0.40206185;color:#000000;fill:url(#radialGradient6912);fill-opacity:1;fill-rule:nonzero;stroke:none;stroke-width:1;stroke-linecap:round;stroke-linejoin:miter;marker:none;marker-start:none;marker-mid:none;marker-end:none;stroke-miterlimit:4;stroke-dasharray:none;stroke-dashoffset:0;stroke-opacity:1;visibility:visible;display:inline;overflow:visible"/>
      <path style="opacity:0.40206185;color:#000000;fill:url(#radialGradient6909);fill-opacity:1;fill-rule:nonzero;stroke:none;stroke-width:1;stroke-linecap:round;stroke-linejoin:miter;marker:none;marker-start:none;marker-mid:none;marker-end:none;stroke-miterlimit:4;stroke-dasharray:none;stroke-dashoffset:0;stroke-opacity:1;visibility:visible;display:inline;overflow:visible" d="M 2,26.00062 C 2,26.00062 2,43.999627 2,43.999627 C 1.172704,44.03351 1.3577825e-06,39.966963 1.3577825e-06,34.998965 C 1.3577825e-06,30.030967 0.92320113,26.000621 2,26.00062 z " id="path6061" sodipodi:nodetypes="cccc"/>
    </g>
    <path style="fill:url(#linearGradient6360);fill-opacity:1.0;stroke:#888a85;stroke-width:0.99999994;stroke-linecap:round;stroke-linejoin:round;stroke-miterlimit:4;stroke-dashoffset:0;stroke-opacity:1" d="M 2.767767,6.5 L 45.232237,6.5 C 45.93458,6.5 46.500004,7.0654241 46.500004,7.767767 L 46.5,30.5 C 46.5,31.202343 36.202343,40.5 35.5,40.5 L 2.767767,40.5 C 2.0654241,40.5 1.5,39.934576 1.5,39.232233 L 1.5,7.767767 C 1.5,7.0654241 2.0654241,6.5 2.767767,6.5 z " id="rect5350" sodipodi:nodetypes="ccccccccc"/>
    <path style="fill:url(#linearGradient2071);fill-opacity:1;stroke:#888a85;stroke-width:0.99999994;stroke-linecap:round;stroke-linejoin:round;stroke-miterlimit:4;stroke-dashoffset:0;stroke-opacity:1" d="M 4.9874617,9.5 L 43.039565,9.5 C 43.309619,9.5 43.527027,9.7276458 43.527027,10.010417 L 43.527027,33.989583 L 40.039565,37.5 L 4.9874617,37.5 C 4.7174079,37.5 4.5,37.272354 4.5,36.989583 L 4.5,10.010417 C 4.5,9.7276458 4.7174079,9.5 4.9874617,9.5 z " id="rect2063" sodipodi:nodetypes="ccccccccc"/>
    <path style="opacity:1;color:#000000;fill:url(#radialGradient4915);fill-opacity:1;fill-rule:evenodd;stroke:none;stroke-width:1;stroke-linecap:round;stroke-linejoin:round;marker:none;marker-start:none;marker-mid:none;marker-end:none;stroke-miterlimit:4;stroke-dasharray:none;stroke-dashoffset:0;stroke-opacity:1;visibility:visible;display:inline;overflow:visible" d="M 16.083789,23.551777 C 10.91501,23.879732 6.8025384,28.206965 6.8025384,33.458027 C 6.8025384,33.660812 6.8217484,33.852002 6.8337884,34.051777 L 26.583789,34.051777 C 26.59583,33.852002 26.615039,33.660812 26.615039,33.458027 C 26.615039,27.993506 22.17331,23.551777 16.708789,23.551777 C 16.495331,23.551777 16.293902,23.538446 16.083789,23.551777 z " id="path4898" inkscape:r_cx="true" inkscape:r_cy="true"/>
    <rect style="opacity:1;fill:url(#linearGradient4622);fill-opacity:1;stroke:none;stroke-width:1;stroke-linecap:round;stroke-linejoin:round;stroke-miterlimit:4;stroke-dasharray:none;stroke-dashoffset:0;stroke-opacity:1" id="rect1324" width="38" height="3" x="5" y="34" rx="0" ry="0"/>
    <path style="opacity:0.81896548;fill:url(#linearGradient6372);fill-opacity:1;stroke:none;stroke-width:0.99999994;stroke-linecap:round;stroke-linejoin:round;stroke-miterlimit:4;stroke-dashoffset:0;stroke-opacity:1" d="M 14.78125,40 L 35.40625,40 C 35.41645,39.995518 35.423208,39.996022 35.46875,39.96875 C 35.559833,39.914206 35.707858,39.809986 35.875,39.6875 C 36.209283,39.442528 36.659837,39.093896 37.1875,38.65625 C 38.242827,37.780957 39.61066,36.608491 40.9375,35.40625 C 42.26434,34.204009 43.563777,32.96157 44.53125,32 C 45.014987,31.519215 45.417906,31.118778 45.6875,30.8125 C 45.822297,30.659361 45.910802,30.519277 45.96875,30.4375 C 45.983237,30.417056 45.991685,30.419536 46,30.40625 L 46,13.78125 L 14.78125,40 z " id="path6364" sodipodi:nodetypes="ccsssssssccc"/>
    <path style="fill:#000000;fill-opacity:1;fill-rule:evenodd;stroke:none;stroke-width:1px;stroke-linecap:butt;stroke-linejoin:miter;stroke-opacity:1" d="M 29.555584,34.972272 C 29.555584,34.972272 29,31.732526 29,29.747801 C 29.015409,28.842396 36.786707,21.788999 36.806757,20.738368 L 35,22.392753 L 33.734835,18.776232 L 38,19.24059 L 40,17.139148 L 37.734835,18.886405 L 36.955806,18.700662 L 36,15.037705 L 36.486136,18.607791 L 32.955806,18.422048 L 34.06066,21.376634 L 31,18.189869 L 34.237437,22.62545 C 34.237522,23.614733 27.856563,29.653936 27.867417,28.612599 L 25.220971,24.882982 L 25,19.841002 L 27,19.24059 L 28.752155,14.700822 L 26.442435,18.896683 L 24.639267,18.810834 L 20.602879,15.228917 L 15.06066,13 L 19.795495,15.734242 L 16,16.088427 L 21,16.088427 L 24,19.24059 L 24.353553,24.685407 L 19,19.24059 L 21.251301,22.085004 L 18,24.494195 L 21.571429,22.392753 L 27.220971,29.869807 L 27,34.972272 L 29.555584,34.972272 z " id="path2079" sodipodi:nodetypes="cccccccccccccccccccccccccccccccccccc"/>
    <path inkscape:r_cy="true" inkscape:r_cx="true" id="path4924" d="M 16.367734,28.233668 C 13.547195,28.412629 11.30307,30.773947 11.30307,33.639387 C 11.30307,33.750044 11.313552,33.854374 11.320122,33.963389 L 22.097455,33.963389 C 22.104026,33.854374 22.114508,33.750044 22.114508,33.639387 C 22.114508,30.657465 19.690711,28.233668 16.708789,28.233668 C 16.592307,28.233668 16.48239,28.226393 16.367734,28.233668 z " style="opacity:1;color:#000000;fill:#fef39e;fill-opacity:1;fill-rule:evenodd;stroke:none;stroke-width:1;stroke-linecap:round;stroke-linejoin:round;marker:none;marker-start:none;marker-mid:none;marker-end:none;stroke-miterlimit:4;stroke-dasharray:none;stroke-dashoffset:0;stroke-opacity:1;visibility:visible;display:inline;overflow:visible"/>
    <path style="opacity:1;color:#000000;fill:#fffbd7;fill-opacity:0.55681817;fill-rule:evenodd;stroke:none;stroke-width:1;stroke-linecap:round;stroke-linejoin:round;marker:none;marker-start:none;marker-mid:none;marker-end:none;stroke-miterlimit:4;stroke-dasharray:none;stroke-dashoffset:0;stroke-opacity:1;visibility:visible;display:inline;overflow:visible" d="M 16.448682,29.531973 C 14.297594,29.668459 12.586109,31.469322 12.586109,33.654654 C 12.586109,33.739046 12.594104,33.818614 12.599114,33.901754 L 20.818463,33.901754 C 20.823474,33.818614 20.831469,33.739046 20.831469,33.654654 C 20.831469,31.380487 18.982957,29.531973 16.708789,29.531973 C 16.619954,29.531973 16.536126,29.526426 16.448682,29.531973 z " id="path4926" inkscape:r_cx="true" inkscape:r_cy="true"/>
    <path style="fill:none;fill-opacity:1;stroke:#ffffff;stroke-width:0.99999994;stroke-linecap:round;stroke-linejoin:round;stroke-miterlimit:4;stroke-dashoffset:0;stroke-opacity:1" d="M 2.78125,7.5 C 2.6253137,7.5 2.5,7.6253137 2.5,7.78125 L 2.5,39.21875 C 2.5,39.374686 2.6253136,39.5 2.78125,39.5 L 37.28125,39.5 C 40.921301,36.704635 42.365769,35.606734 45.5,32.25 L 45.5,7.78125 C 45.5,7.6253155 45.374683,7.5 45.21875,7.5 L 2.78125,7.5 z " id="path6351" sodipodi:nodetypes="ccccccccc"/>
    <path style="fill:url(#linearGradient6333);fill-rule:evenodd;stroke:url(#radialGradient6382);stroke-width:1px;stroke-linecap:butt;stroke-linejoin:round;stroke-opacity:1;fill-opacity:1.0" d="M 46.5,30.5 C 46.5,35.5 40.5,40.5 35.5,40.5 C 35.5,40.5 39.932134,38.33738 39.5,33.5 C 43.879686,33.916135 46.5,30.5 46.5,30.5 z " id="path6322" sodipodi:nodetypes="cccc"/>
    <path style="fill:url(#radialGradient6437);fill-opacity:1.0;fill-rule:evenodd;stroke:none;stroke-width:1px;stroke-linecap:butt;stroke-linejoin:round;stroke-opacity:1;opacity:0.73275862" d="M 45.71875 31.96875 C 44.577589 32.932531 42.679856 34.08934 40.03125 34.03125 C 40.059733 36.774444 38.699098 38.58751 37.46875 39.6875 C 38.953141 38.706251 40.825166 37.371805 41.03125 35.03125 C 43.192381 35.027997 44.619214 33.310655 45.6875 32.03125 C 45.693038 32.009581 45.713422 31.990426 45.71875 31.96875 z " id="path6339"/>
    <path style="fill:url(#radialGradient6396);fill-opacity:1.0;stroke:none;stroke-width:0.99999994;stroke-linecap:round;stroke-linejoin:round;stroke-miterlimit:4;stroke-dashoffset:0;stroke-opacity:1;opacity:0.34482759" d="M 2.78125,7 C 2.3536576,7 2,7.3536576 2,7.78125 L 2,31.09375 C 14.714701,22.184679 34.055102,15.625228 46,19.3125 L 46,7.78125 C 46,7.3536585 45.64634,7 45.21875,7 L 2.78125,7 z " id="path6384" sodipodi:nodetypes="ccccccc"/>
    <path sodipodi:type="inkscape:offset" inkscape:radius="-1" inkscape:original="M 2.78125 6.5 C 2.0789071 6.5 1.5 7.0789071 1.5 7.78125 L 1.5 39.21875 C 1.5 39.921093 2.0789071 40.5 2.78125 40.5 L 35.5 40.5 C 40.5 40.5 46.5 35.5 46.5 30.5 L 46.5 7.78125 C 46.5 7.0789071 45.921091 6.5 45.21875 6.5 L 2.78125 6.5 z " style="fill:none;fill-opacity:1;stroke:#ffffff;stroke-width:0.99999994;stroke-linecap:round;stroke-linejoin:round;stroke-miterlimit:4;stroke-dashoffset:0;stroke-opacity:1;opacity:0.41810345" id="path6427" d="M 2.78125,7.5 C 2.628408,7.5 2.5,7.628408 2.5,7.78125 L 2.5,39.21875 C 2.5,39.371592 2.6284079,39.5 2.78125,39.5 L 35.5,39.5 C 37.666667,39.5 40.249358,38.362698 42.21875,36.625 C 44.188142,34.887302 45.5,32.6 45.5,30.5 L 45.5,7.78125 C 45.5,7.6284098 45.371589,7.5 45.21875,7.5 L 2.78125,7.5 z "/>
  </g>
</svg>